{
  "items": [
    {
      "user_id": 86165,
      "items": [
        69829,
        46006,
        66942,
        36254,
        28769
      ],
      "created_at": "2024-06-01T04:31:49.406390",
      "updated_at": "2025-07-17T04:51:50.747887"
    },
    {
      "user_id": 33653,
      "items": [
        54188,
        43577,
        37661,
        86796,
        29287
      ],
      "created_at": "2024-01-10T04:31:28.643958",
      "updated_at": "2025-03-27T11:19:42.241555"
    },
    {
      "user_id": 12193,
      "items": [
        35341,
        1637,
        97404,
        64172,
        11653
      ],
      "created_at": "2025-01-26T08:03:39.410852",
      "updated_at": "2025-04-30T10:05:40.339807"
    },
    {
      "user_id": 23281,
      "items": [
        28795,
        23475,
        36254,
        43418,
        9141
      ],
      "created_at": "2024-05-05T03:25:02.551544",
      "updated_at": "2025-04-14T07:47:53.566300"
    },
    {
      "user_id": 42413,
      "items": [
        20548,
        50605,
        89541,
        25455,
        58640
      ],
      "created_at": "2024-02-06T04:19:42.757488",
      "updated_at": "2024-10-20T13:23:19.003321"
    },
    {
      "user_id": 43833,
      "items": [
        55706,
        76971,
        37058,
        78518,
        84708
      ],
      "created_at": "2024-08-27T17:20:36.725392",
      "updated_at": "2024-10-01T13:46:27.506003"
    },
    {
      "user_id": 30415,
      "items": [
        5503,
        27574,
        45591,
        90945,
        29992
      ],
      "created_at": "2025-04-27T07:39:24.555027",
      "updated_at": "2025-04-30T22:59:11.244293"
    },
    {
      "user_id": 33428,
      "items": [
        29735,
        35985,
        79067,
        35765,
        77662
      ],
      "created_at": "2025-06-10T13:00:13.019787",
      "updated_at": "2025-06-24T22:15:36.157705"
    },
    {
      "user_id": 70349,
      "items": [
        31424,
        44311,
        778,
        89408,
        47113
      ],
      "created_at": "2025-01-20T12:02:44.025484",
      "updated_at": "2025-06-28T11:42:08.018338"
    },
    {
      "user_id": 87963,
      "items": [
        84343,
        263,
        30717,
        50567,
        41766
      ],
      "created_at": "2024-09-11T07:09:18.303783",
      "updated_at": "2025-04-05T03:45:25.995456"
    },
    {
      "user_id": 80506,
      "items": [
        82208,
        84343,
        429,
        44969,
        13660
      ],
      "created_at": "2023-12-03T06:00:04.916387",
      "updated_at": "2025-08-04T08:58:46.691254"
    },
    {
      "user_id": 27463,
      "items": [
        98444,
        38204,
        91636,
        73274,
        53341
      ],
      "created_at": "2024-08-18T00:02:39.782992",
      "updated_at": "2025-07-25T23:24:54.016888"
    },
    {
      "user_id": 51822,
      "items": [
        763,
        32832,
        50890,
        60820,
        18688
      ],
      "created_at": "2025-03-19T08:55:16.984175",
      "updated_at": "2025-04-27T17:40:16.462508"
    },
    {
      "user_id": 42510,
      "items": [
        71202,
        64905,
        13917,
        46689,
        27637
      ],
      "created_at": "2024-12-29T11:23:40.752227",
      "updated_at": "2025-08-02T00:10:59.130021"
    },
    {
      "user_id": 86429,
      "items": [
        66570,
        10658,
        66526,
        45643,
        40193
      ],
      "created_at": "2024-12-10T20:56:43.601838",
      "updated_at": "2025-04-16T11:37:14.014218"
    },
    {
      "user_id": 97333,
      "items": [
        10658,
        47356,
        90015,
        30124,
        73274
      ],
      "created_at": "2025-02-16T00:57:10.667349",
      "updated_at": "2025-04-22T23:45:13.907373"
    },
    {
      "user_id": 64720,
      "items": [
        9390,
        52880,
        93891,
        617,
        35525
      ],
      "created_at": "2023-10-31T09:07:38.724214",
      "updated_at": "2025-01-31T21:11:34.720568"
    },
    {
      "user_id": 82937,
      "items": [
        92390,
        44614,
        69557,
        36522,
        82885
      ],
      "created_at": "2025-04-08T20:26:05.847389",
      "updated_at": "2025-06-30T09:56:06.807852"
    },
    {
      "user_id": 88473,
      "items": [
        38719,
        23388,
        89657,
        52695,
        27414
      ],
      "created_at": "2024-07-18T12:45:04.951246",
      "updated_at": "2025-02-07T21:42:02.606908"
    },
    {
      "user_id": 24148,
      "items": [
        16435,
        67146,
        13966,
        8362,
        58627
      ],
      "created_at": "2024-06-26T09:48:18.022699",
      "updated_at": "2024-09-08T16:13:51.562080"
    },
    {
      "user_id": 39562,
      "items": [
        11319,
        76245,
        29992,
        26891,
        55214
      ],
      "created_at": "2024-03-10T07:53:52.018909",
      "updated_at": "2024-05-22T17:03:11.189580"
    },
    {
      "user_id": 25631,
      "items": [
        14000,
        70483,
        5377,
        8071,
        52256
      ],
      "created_at": "2024-10-31T02:15:18.339001",
      "updated_at": "2025-05-12T03:46:29.623417"
    },
    {
      "user_id": 64587,
      "items": [
        42294,
        90957,
        55309,
        66312,
        24864
      ],
      "created_at": "2023-11-04T23:42:59.916236",
      "updated_at": "2024-09-27T17:48:47.236319"
    },
    {
      "user_id": 99298,
      "items": [
        24375,
        27347,
        37113,
        32578,
        12258
      ],
      "created_at": "2024-06-13T16:59:55.934960",
      "updated_at": "2025-06-29T16:56:30.860606"
    },
    {
      "user_id": 88965,
      "items": [
        1247,
        73870,
        61519,
        10647,
        26885
      ],
      "created_at": "2024-05-29T18:25:30.050021",
      "updated_at": "2024-06-25T02:27:29.634654"
    },
    {
      "user_id": 60115,
      "items": [
        33424,
        70483,
        60013,
        27619,
        76455
      ],
      "created_at": "2024-03-15T09:23:57.816227",
      "updated_at": "2024-06-26T18:36:36.221283"
    },
    {
      "user_id": 27501,
      "items": [
        29735,
        76398,
        49339,
        76256,
        54713
      ],
      "created_at": "2023-10-20T17:54:02.839155",
      "updated_at": "2023-10-28T23:19:14.941742"
    },
    {
      "user_id": 20850,
      "items": [
        59403,
        41398,
        44614,
        82765,
        11319
      ],
      "created_at": "2025-05-16T18:51:50.609166",
      "updated_at": "2025-05-25T13:04:58.675591"
    },
    {
      "user_id": 60114,
      "items": [
        63999,
        21036,
        26790,
        75164,
        49843
      ],
      "created_at": "2023-10-28T15:52:23.187162",
      "updated_at": "2024-11-12T18:28:33.276519"
    },
    {
      "user_id": 12191,
      "items": [
        55493,
        92529,
        62350,
        92511,
        23523
      ],
      "created_at": "2023-10-13T07:18:28.454024",
      "updated_at": "2023-12-16T14:35:46.663191"
    },
    {
      "user_id": 74628,
      "items": [
        23388,
        29735,
        47436,
        29790,
        81719
      ],
      "created_at": "2023-09-06T13:07:24.995349",
      "updated_at": "2025-01-14T13:22:30.347707"
    },
    {
      "user_id": 38062,
      "items": [
        23523,
        78518,
        46134,
        66766,
        21500
      ],
      "created_at": "2024-09-14T11:30:34.455611",
      "updated_at": "2024-11-16T00:31:27.780196"
    },
    {
      "user_id": 64807,
      "items": [
        22572,
        29418,
        67497,
        87165,
        68393
      ],
      "created_at": "2023-09-26T22:37:19.650904",
      "updated_at": "2024-12-08T18:42:40.310021"
    },
    {
      "user_id": 48369,
      "items": [
        52213,
        66378,
        32536,
        76059,
        27768
      ],
      "created_at": "2024-12-03T03:38:46.022698",
      "updated_at": "2025-03-09T09:02:08.244017"
    },
    {
      "user_id": 54562,
      "items": [
        97404,
        59541,
        66378,
        74342,
        79681
      ],
      "created_at": "2024-07-28T03:50:45.937301",
      "updated_at": "2024-11-16T06:55:51.951644"
    },
    {
      "user_id": 46047,
      "items": [
        74654,
        90897,
        25254,
        47436,
        71569
      ],
      "created_at": "2024-04-16T17:27:09.810049",
      "updated_at": "2024-05-25T09:14:22.974779"
    },
    {
      "user_id": 31641,
      "items": [
        1637,
        52793,
        22055,
        59856,
        26577
      ],
      "created_at": "2025-03-01T09:16:42.735340",
      "updated_at": "2025-06-05T12:33:11.633533"
    },
    {
      "user_id": 92174,
      "items": [
        81178,
        58627,
        38586,
        90957,
        47526
      ],
      "created_at": "2024-12-11T04:41:36.516678",
      "updated_at": "2025-01-04T05:49:11.376440"
    },
    {
      "user_id": 30353,
      "items": [
        31218,
        81879,
        27546,
        33239,
        1247
      ],
      "created_at": "2024-09-18T11:19:51.915329",
      "updated_at": "2025-02-01T08:35:42.191323"
    },
    {
      "user_id": 62648,
      "items": [
        11994,
        87453,
        2098,
        50664,
        39364
      ],
      "created_at": "2024-11-06T05:44:15.093741",
      "updated_at": "2025-07-19T23:52:03.666179"
    },
    {
      "user_id": 54821,
      "items": [
        88998,
        33261,
        2365,
        41398,
        98269
      ],
      "created_at": "2024-05-23T14:59:15.152362",
      "updated_at": "2025-02-14T13:28:16.264710"
    },
    {
      "user_id": 82332,
      "items": [
        26891,
        42545,
        61519,
        76059,
        50664
      ],
      "created_at": "2024-06-29T10:22:50.455090",
      "updated_at": "2024-09-19T21:16:27.468500"
    },
    {
      "user_id": 14395,
      "items": [
        80184,
        38586,
        93347,
        88080,
        43243
      ],
      "created_at": "2024-09-27T16:48:24.520550",
      "updated_at": "2024-11-08T16:29:18.881674"
    },
    {
      "user_id": 92112,
      "items": [
        84527,
        7510,
        9107,
        50567,
        32080
      ],
      "created_at": "2024-05-08T16:00:30.136501",
      "updated_at": "2025-01-18T14:38:05.887460"
    },
    {
      "user_id": 16290,
      "items": [
        95971,
        27027,
        23180,
        47236,
        32006
      ],
      "created_at": "2024-04-08T17:48:33.598171",
      "updated_at": "2024-10-06T06:36:18.543180"
    },
    {
      "user_id": 20844,
      "items": [
        30164,
        12145,
        96897,
        96672,
        37482
      ],
      "created_at": "2025-01-17T02:08:33.585216",
      "updated_at": "2025-08-04T16:40:19.061692"
    },
    {
      "user_id": 30716,
      "items": [
        62397,
        87453,
        5377,
        81178,
        68833
      ],
      "created_at": "2024-03-26T22:31:59.015745",
      "updated_at": "2024-10-04T03:09:58.851190"
    },
    {
      "user_id": 20466,
      "items": [
        84069,
        66766,
        70512,
        44933,
        64931
      ],
      "created_at": "2024-05-01T06:44:18.657723",
      "updated_at": "2025-07-28T06:56:54.273081"
    },
    {
      "user_id": 12157,
      "items": [
        59373,
        92031,
        67732,
        42452,
        44761
      ],
      "created_at": "2023-08-25T18:22:34.851562",
      "updated_at": "2023-12-23T14:55:53.696173"
    },
    {
      "user_id": 94630,
      "items": [
        81245,
        35985,
        71089,
        36254,
        38719
      ],
      "created_at": "2025-08-03T00:29:53.690852",
      "updated_at": "2025-08-03T16:55:47.698908"
    }
  ],
  "total": 1000,
  "page": 1,
  "size": 50,
  "pages": 20
}