{
  "items": [
    {
      "id": 56035,
      "name": "behind",
      "artist": "Brandon Bush",
      "songwriters": "Jerry Ortega",
      "duration": "31:05",
      "genres": "site",
      "album": "road",
      "created_at": "2024-07-05T18:11:40.374680",
      "updated_at": "2024-11-28T09:54:00.964057"
    },
    {
      "id": 98052,
      "name": "white",
      "artist": "Joyce Mendoza",
      "songwriters": "Shelly Woodard",
      "duration": "17:08",
      "genres": "wrong",
      "album": "last",
      "created_at": "2025-03-06T15:13:22.324062",
      "updated_at": "2024-08-29T04:33:44.729495"
    },
    {
      "id": 65376,
      "name": "and",
      "artist": "Nicholas Smith",
      "songwriters": "Johnathan Wilson",
      "duration": "08:17",
      "genres": "main",
      "album": "ready",
      "created_at": "2024-03-02T01:57:33.160135",
      "updated_at": "2025-03-02T17:32:38.153991"
    },
    {
      "id": 35029,
      "name": "local",
      "artist": "Nicole Ramirez",
      "songwriters": "Seth Lam",
      "duration": "34:30",
      "genres": "machine",
      "album": "this",
      "created_at": "2024-01-16T08:44:01.332682",
      "updated_at": "2025-05-23T23:50:53.097695"
    },
    {
      "id": 30957,
      "name": "drive",
      "artist": "Kenneth Dean",
      "songwriters": "Christina Martin",
      "duration": "51:14",
      "genres": "stage",
      "album": "according",
      "created_at": "2024-11-15T13:27:57.598504",
      "updated_at": "2025-06-28T00:29:00.467366"
    },
    {
      "id": 49450,
      "name": "throughout",
      "artist": "Robert Rubio",
      "songwriters": "Ashley Andrews",
      "duration": "37:30",
      "genres": "beyond",
      "album": "type",
      "created_at": "2025-05-21T12:20:16.278525",
      "updated_at": "2025-04-17T04:51:45.390046"
    },
    {
      "id": 10151,
      "name": "share",
      "artist": "Michael Hernandez",
      "songwriters": "Peter Guerra",
      "duration": "09:22",
      "genres": "family",
      "album": "think",
      "created_at": "2025-07-06T01:37:59.145544",
      "updated_at": "2025-04-26T19:22:05.535582"
    },
    {
      "id": 80141,
      "name": "he",
      "artist": "Juan Allen",
      "songwriters": "Christina Sims",
      "duration": "36:50",
      "genres": "there",
      "album": "accept",
      "created_at": "2025-02-21T22:57:14.130433",
      "updated_at": "2024-10-24T23:02:04.098012"
    },
    {
      "id": 14415,
      "name": "sell",
      "artist": "Kenneth Lee",
      "songwriters": "Kenneth Hernandez",
      "duration": "39:46",
      "genres": "ever",
      "album": "order",
      "created_at": "2024-01-16T16:38:04.014817",
      "updated_at": "2025-02-07T10:52:47.774027"
    },
    {
      "id": 70867,
      "name": "reflect",
      "artist": "Julie Ayers",
      "songwriters": "John Smith",
      "duration": "29:53",
      "genres": "by",
      "album": "trade",
      "created_at": "2024-02-29T11:48:02.096308",
      "updated_at": "2025-07-07T20:36:41.968383"
    },
    {
      "id": 433,
      "name": "your",
      "artist": "Kristina Snyder",
      "songwriters": "Eric Holder",
      "duration": "30:17",
      "genres": "operation",
      "album": "here",
      "created_at": "2024-10-18T20:12:14.428728",
      "updated_at": "2025-07-07T14:58:39.717847"
    },
    {
      "id": 98407,
      "name": "design",
      "artist": "Laura Beck",
      "songwriters": "Adam Morgan",
      "duration": "39:51",
      "genres": "everyone",
      "album": "participant",
      "created_at": "2024-08-10T20:59:21.212239",
      "updated_at": "2025-08-05T16:43:44.750309"
    },
    {
      "id": 10315,
      "name": "decade",
      "artist": "Michael Hunter",
      "songwriters": "Mary Horn",
      "duration": "47:33",
      "genres": "responsibility",
      "album": "already",
      "created_at": "2023-11-24T00:55:39.100431",
      "updated_at": "2024-08-22T20:58:06.943249"
    },
    {
      "id": 33147,
      "name": "sort",
      "artist": "Karina Lawson",
      "songwriters": "Karen Hoover",
      "duration": "21:42",
      "genres": "test",
      "album": "understand",
      "created_at": "2024-09-06T12:17:19.000168",
      "updated_at": "2025-02-06T15:16:19.888698"
    },
    {
      "id": 50567,
      "name": "state",
      "artist": "Shawn Livingston",
      "songwriters": "Chad Ward",
      "duration": "24:16",
      "genres": "deep",
      "album": "economy",
      "created_at": "2024-01-28T09:10:39.587416",
      "updated_at": "2024-08-23T03:46:28.875294"
    },
    {
      "id": 78723,
      "name": "run",
      "artist": "April Lopez",
      "songwriters": "Brad Williams",
      "duration": "07:06",
      "genres": "serious",
      "album": "college",
      "created_at": "2024-01-15T09:49:32.600155",
      "updated_at": "2024-09-27T22:39:56.652902"
    },
    {
      "id": 45618,
      "name": "game",
      "artist": "Becky Allen",
      "songwriters": "Veronica Rodriguez",
      "duration": "16:42",
      "genres": "phone",
      "album": "worker",
      "created_at": "2024-03-25T15:32:23.570874",
      "updated_at": "2024-11-14T05:13:11.861487"
    },
    {
      "id": 23180,
      "name": "crime",
      "artist": "Corey Elliott",
      "songwriters": "Kevin Cox",
      "duration": "48:33",
      "genres": "evidence",
      "album": "attack",
      "created_at": "2024-10-21T09:42:06.977851",
      "updated_at": "2025-05-23T21:12:36.288601"
    },
    {
      "id": 49404,
      "name": "student",
      "artist": "Christopher Mills",
      "songwriters": "Derek Gray",
      "duration": "12:18",
      "genres": "dinner",
      "album": "group",
      "created_at": "2024-12-02T23:15:53.062690",
      "updated_at": "2025-02-13T06:34:48.727062"
    },
    {
      "id": 5469,
      "name": "others",
      "artist": "Larry Russell",
      "songwriters": "Amy Martin",
      "duration": "48:57",
      "genres": "range",
      "album": "race",
      "created_at": "2023-09-28T10:02:18.827897",
      "updated_at": "2025-05-27T14:35:37.899455"
    },
    {
      "id": 2365,
      "name": "cost",
      "artist": "Dawn Jackson",
      "songwriters": "William Brown",
      "duration": "34:21",
      "genres": "deal",
      "album": "community",
      "created_at": "2024-08-21T15:58:56.457280",
      "updated_at": "2025-03-25T08:12:28.320712"
    },
    {
      "id": 55665,
      "name": "within",
      "artist": "Michael Garcia",
      "songwriters": "Deborah Scott",
      "duration": "59:09",
      "genres": "popular",
      "album": "with",
      "created_at": "2024-03-29T16:58:51.942397",
      "updated_at": "2024-12-13T17:59:23.250523"
    },
    {
      "id": 33444,
      "name": "next",
      "artist": "Paul Bailey",
      "songwriters": "Rachel Cruz",
      "duration": "28:36",
      "genres": "visit",
      "album": "stand",
      "created_at": "2024-08-28T19:00:31.480374",
      "updated_at": "2025-06-21T22:01:55.144124"
    },
    {
      "id": 26453,
      "name": "run",
      "artist": "Dana Rogers",
      "songwriters": "Larry Johnson",
      "duration": "59:31",
      "genres": "mouth",
      "album": "make",
      "created_at": "2024-08-25T15:46:51.778530",
      "updated_at": "2025-02-05T18:52:43.605627"
    },
    {
      "id": 46705,
      "name": "rule",
      "artist": "Kim Thompson",
      "songwriters": "Philip Taylor",
      "duration": "33:13",
      "genres": "civil",
      "album": "available",
      "created_at": "2025-02-02T22:04:13.867199",
      "updated_at": "2025-06-17T10:33:22.374317"
    },
    {
      "id": 9390,
      "name": "treat",
      "artist": "Jenna Harris",
      "songwriters": "Xavier Cook",
      "duration": "19:25",
      "genres": "blue",
      "album": "large",
      "created_at": "2025-06-05T04:42:29.733376",
      "updated_at": "2025-06-02T02:21:46.175613"
    },
    {
      "id": 48851,
      "name": "note",
      "artist": "Emma Underwood",
      "songwriters": "Jenna Blankenship",
      "duration": "14:00",
      "genres": "away",
      "album": "shoulder",
      "created_at": "2025-07-17T22:51:42.500066",
      "updated_at": "2025-04-16T23:48:38.428932"
    },
    {
      "id": 90015,
      "name": "like",
      "artist": "Emily Huffman",
      "songwriters": "Keith Morrison",
      "duration": "44:10",
      "genres": "too",
      "album": "probably",
      "created_at": "2024-09-01T14:43:23.345860",
      "updated_at": "2024-12-31T18:36:52.885773"
    },
    {
      "id": 65700,
      "name": "friend",
      "artist": "Teresa Craig",
      "songwriters": "Heather Salazar",
      "duration": "46:34",
      "genres": "reduce",
      "album": "identify",
      "created_at": "2024-11-13T12:35:02.717983",
      "updated_at": "2024-10-05T13:57:19.722797"
    },
    {
      "id": 24146,
      "name": "seem",
      "artist": "Mrs. Brittany Williams",
      "songwriters": "Dr. Carol Gibson",
      "duration": "31:41",
      "genres": "standard",
      "album": "support",
      "created_at": "2024-09-10T22:11:20.118471",
      "updated_at": "2024-09-23T03:26:35.926257"
    },
    {
      "id": 4127,
      "name": "senior",
      "artist": "Scott Anderson",
      "songwriters": "Derek Melton",
      "duration": "37:40",
      "genres": "early",
      "album": "side",
      "created_at": "2023-10-16T22:41:37.541921",
      "updated_at": "2024-08-08T23:25:39.188353"
    },
    {
      "id": 64872,
      "name": "read",
      "artist": "Victoria Cuevas",
      "songwriters": "Samuel Jimenez",
      "duration": "08:45",
      "genres": "fire",
      "album": "agree",
      "created_at": "2023-08-28T00:30:53.321923",
      "updated_at": "2025-04-17T16:00:39.677695"
    },
    {
      "id": 50986,
      "name": "protect",
      "artist": "Alicia Ortiz",
      "songwriters": "Bridget Nelson",
      "duration": "38:42",
      "genres": "exist",
      "album": "rise",
      "created_at": "2025-03-02T05:40:17.629057",
      "updated_at": "2025-08-03T01:02:13.731266"
    },
    {
      "id": 31970,
      "name": "base",
      "artist": "Kim Day",
      "songwriters": "Edward Rodriguez",
      "duration": "03:41",
      "genres": "road",
      "album": "consider",
      "created_at": "2025-07-16T01:58:48.987223",
      "updated_at": "2024-08-11T21:21:56.143776"
    },
    {
      "id": 91630,
      "name": "sport",
      "artist": "Kimberly Rice DVM",
      "songwriters": "Jeff Ramirez",
      "duration": "35:18",
      "genres": "hotel",
      "album": "especially",
      "created_at": "2024-02-24T05:28:23.736745",
      "updated_at": "2025-03-18T12:40:59.782340"
    },
    {
      "id": 80885,
      "name": "particularly",
      "artist": "Teresa Holt",
      "songwriters": "Sonia Hamilton",
      "duration": "49:05",
      "genres": "city",
      "album": "shake",
      "created_at": "2025-01-20T23:42:39.294559",
      "updated_at": "2025-04-20T20:06:57.176246"
    },
    {
      "id": 25115,
      "name": "more",
      "artist": "Brian Miller",
      "songwriters": "Isaac Bradley",
      "duration": "05:47",
      "genres": "bar",
      "album": "lose",
      "created_at": "2023-11-18T04:51:15.034712",
      "updated_at": "2024-09-10T09:26:53.508720"
    },
    {
      "id": 50664,
      "name": "six",
      "artist": "Benjamin Smith",
      "songwriters": "Alan Green",
      "duration": "57:09",
      "genres": "health",
      "album": "capital",
      "created_at": "2024-03-31T18:23:42.357853",
      "updated_at": "2024-09-05T19:13:55.239903"
    },
    {
      "id": 71124,
      "name": "activity",
      "artist": "Nicole Hansen",
      "songwriters": "Jennifer Barnes",
      "duration": "45:41",
      "genres": "what",
      "album": "no",
      "created_at": "2024-10-01T05:07:34.514945",
      "updated_at": "2024-12-13T06:58:15.876401"
    },
    {
      "id": 81719,
      "name": "partner",
      "artist": "Kevin Ruiz",
      "songwriters": "Randy Smith",
      "duration": "09:47",
      "genres": "plan",
      "album": "force",
      "created_at": "2024-08-09T20:35:59.542399",
      "updated_at": "2025-01-14T08:19:20.720432"
    },
    {
      "id": 40356,
      "name": "it",
      "artist": "Jason Nguyen",
      "songwriters": "John Jimenez",
      "duration": "42:24",
      "genres": "majority",
      "album": "executive",
      "created_at": "2025-05-29T03:50:59.964925",
      "updated_at": "2025-02-07T14:19:54.895995"
    },
    {
      "id": 16386,
      "name": "worry",
      "artist": "Joseph Myers",
      "songwriters": "Matthew Hughes",
      "duration": "43:30",
      "genres": "charge",
      "album": "crime",
      "created_at": "2023-09-25T16:24:06.256056",
      "updated_at": "2025-01-01T04:28:23.569100"
    },
    {
      "id": 28639,
      "name": "respond",
      "artist": "David Fletcher",
      "songwriters": "Renee Castillo",
      "duration": "32:22",
      "genres": "seem",
      "album": "shake",
      "created_at": "2025-04-13T16:45:01.776877",
      "updated_at": "2024-10-28T15:53:32.953502"
    },
    {
      "id": 60983,
      "name": "this",
      "artist": "Michael Young",
      "songwriters": "Mrs. Danielle Taylor",
      "duration": "13:11",
      "genres": "she",
      "album": "it",
      "created_at": "2025-04-24T01:24:10.507766",
      "updated_at": "2024-10-05T19:13:19.678066"
    },
    {
      "id": 94976,
      "name": "bar",
      "artist": "Geoffrey Huff",
      "songwriters": "Alexander Wheeler",
      "duration": "40:59",
      "genres": "none",
      "album": "guy",
      "created_at": "2024-08-14T11:21:39.322599",
      "updated_at": "2025-05-31T07:44:09.858530"
    },
    {
      "id": 81594,
      "name": "until",
      "artist": "Kelly Gonzalez",
      "songwriters": "Jeffery Sims",
      "duration": "19:35",
      "genres": "age",
      "album": "fight",
      "created_at": "2025-01-09T09:48:37.202185",
      "updated_at": "2025-05-20T12:29:41.046264"
    },
    {
      "id": 25024,
      "name": "camera",
      "artist": "Chelsea Snyder",
      "songwriters": "Shelby Wilson",
      "duration": "42:13",
      "genres": "smile",
      "album": "true",
      "created_at": "2024-06-30T18:02:57.924429",
      "updated_at": "2025-05-06T02:25:08.782060"
    },
    {
      "id": 60852,
      "name": "move",
      "artist": "Beverly Smith",
      "songwriters": "Angel Grimes",
      "duration": "38:46",
      "genres": "probably",
      "album": "old",
      "created_at": "2024-10-28T04:06:27.694137",
      "updated_at": "2025-01-27T06:12:50.079832"
    },
    {
      "id": 35765,
      "name": "lead",
      "artist": "Riley Hunt",
      "songwriters": "Michelle Kane",
      "duration": "04:15",
      "genres": "school",
      "album": "eye",
      "created_at": "2024-09-19T12:06:53.773067",
      "updated_at": "2025-05-30T19:20:30.716617"
    },
    {
      "id": 93775,
      "name": "month",
      "artist": "Brandon Byrd",
      "songwriters": "Dana Campbell",
      "duration": "37:53",
      "genres": "prepare",
      "album": "agree",
      "created_at": "2025-03-18T07:38:11.348541",
      "updated_at": "2025-01-28T06:57:54.139586"
    }
  ],
  "total": 1000,
  "page": 1,
  "size": 50,
  "pages": 20
}