{
  "items": [
    {
      "id": 86165,
      "first_name": "Rebecca",
      "last_name": "Mendoza",
      "email": "jkerr@example.com",
      "gender": "Non-binary",
      "favorite_genres": "Folk",
      "created_at": "2023-10-19T20:35:49.957770",
      "updated_at": "2025-01-08T13:21:56.640122"
    },
    {
      "id": 33653,
      "first_name": "John",
      "last_name": "Smith",
      "email": "sarahcarpenter@example.com",
      "gender": "Genderfluid",
      "favorite_genres": "Classical",
      "created_at": "2024-05-25T07:15:35.622802",
      "updated_at": "2025-01-26T05:37:13.713386"
    },
    {
      "id": 12193,
      "first_name": "Tina",
      "last_name": "Henderson",
      "email": "brian57@example.net",
      "gender": "Gender nonconforming",
      "favorite_genres": "Folk",
      "created_at": "2024-04-27T04:56:27.293688",
      "updated_at": "2025-01-06T03:09:21.388379"
    },
    {
      "id": 23281,
      "first_name": "Richard",
      "last_name": "Prince",
      "email": "michelle58@example.org",
      "gender": "Female",
      "favorite_genres": "Hip Hop",
      "created_at": "2024-01-19T13:40:07.888469",
      "updated_at": "2025-07-11T11:31:27.197042"
    },
    {
      "id": 42413,
      "first_name": "Jennifer",
      "last_name": "Davis",
      "email": "amymann@example.net",
      "gender": "Agender",
      "favorite_genres": "Blues",
      "created_at": "2023-11-03T07:34:56.235861",
      "updated_at": "2024-11-12T08:58:00.383234"
    },
    {
      "id": 43833,
      "first_name": "James",
      "last_name": "Murray",
      "email": "kimberlysmith@example.com",
      "gender": "Gender nonconforming",
      "favorite_genres": "Alternative",
      "created_at": "2025-08-03T15:09:02.033505",
      "updated_at": "2025-01-03T20:37:54.600928"
    },
    {
      "id": 30415,
      "first_name": "Anthony",
      "last_name": "Miller",
      "email": "colonnicholas@example.org",
      "gender": "Genderfluid",
      "favorite_genres": "Blues",
      "created_at": "2023-11-23T06:27:15.964396",
      "updated_at": "2024-08-13T15:03:29.122041"
    },
    {
      "id": 33428,
      "first_name": "Samantha",
      "last_name": "Wilcox",
      "email": "tara14@example.org",
      "gender": "Gender nonconforming",
      "favorite_genres": "Pop",
      "created_at": "2025-07-02T09:49:41.968493",
      "updated_at": "2024-08-31T11:50:13.421921"
    },
    {
      "id": 70349,
      "first_name": "Tammy",
      "last_name": "Jones",
      "email": "carolynsmith@example.com",
      "gender": "Agender",
      "favorite_genres": "Folk",
      "created_at": "2023-12-07T11:11:08.708426",
      "updated_at": "2025-07-24T12:13:45.184778"
    },
    {
      "id": 87963,
      "first_name": "Richard",
      "last_name": "Taylor",
      "email": "maryjones@example.com",
      "gender": "Gender nonconforming",
      "favorite_genres": "Indie",
      "created_at": "2023-11-18T05:55:33.723847",
      "updated_at": "2025-01-13T16:21:37.717741"
    },
    {
      "id": 80506,
      "first_name": "Melanie",
      "last_name": "Stafford",
      "email": "kramsey@example.net",
      "gender": "Male",
      "favorite_genres": "Techno",
      "created_at": "2023-09-02T19:24:37.666986",
      "updated_at": "2024-12-15T17:45:20.837488"
    },
    {
      "id": 27463,
      "first_name": "Michael",
      "last_name": "Jones",
      "email": "cunninghambrandy@example.org",
      "gender": "Bigender",
      "favorite_genres": "Pop",
      "created_at": "2024-04-19T02:05:33.136387",
      "updated_at": "2025-03-26T10:03:18.772813"
    },
    {
      "id": 51822,
      "first_name": "Dawn",
      "last_name": "Mills",
      "email": "hunterdavid@example.net",
      "gender": "Female",
      "favorite_genres": "Hip Hop",
      "created_at": "2025-04-25T19:03:28.727446",
      "updated_at": "2024-11-02T20:20:50.132991"
    },
    {
      "id": 42510,
      "first_name": "Aaron",
      "last_name": "Palmer",
      "email": "milleralyssa@example.org",
      "gender": "Genderqueer",
      "favorite_genres": "Hip Hop",
      "created_at": "2023-08-30T07:55:25.307247",
      "updated_at": "2025-06-01T15:12:38.475365"
    },
    {
      "id": 86429,
      "first_name": "Jason",
      "last_name": "Zuniga",
      "email": "catherinestokes@example.com",
      "gender": "Agender",
      "favorite_genres": "Techno",
      "created_at": "2024-05-20T18:55:38.765194",
      "updated_at": "2025-04-04T00:51:08.122123"
    },
    {
      "id": 97333,
      "first_name": "Nathaniel",
      "last_name": "Padilla",
      "email": "armstrongtroy@example.org",
      "gender": "Gender questioning",
      "favorite_genres": "Metal",
      "created_at": "2023-10-07T06:39:04.457892",
      "updated_at": "2024-10-27T05:18:08.878666"
    },
    {
      "id": 64720,
      "first_name": "Taylor",
      "last_name": "Valdez",
      "email": "aroth@example.org",
      "gender": "Gender nonconforming",
      "favorite_genres": "Punk",
      "created_at": "2024-05-06T01:47:32.944905",
      "updated_at": "2025-02-12T08:12:54.777785"
    },
    {
      "id": 82937,
      "first_name": "Christina",
      "last_name": "Cantu",
      "email": "kevinwagner@example.net",
      "gender": "Female",
      "favorite_genres": "Hip Hop",
      "created_at": "2024-03-31T03:33:42.460460",
      "updated_at": "2024-09-03T10:19:50.763279"
    },
    {
      "id": 88473,
      "first_name": "Lauren",
      "last_name": "Berry",
      "email": "michael04@example.org",
      "gender": "Non-binary",
      "favorite_genres": "R&B",
      "created_at": "2024-11-10T17:41:06.378609",
      "updated_at": "2024-12-31T19:26:49.046665"
    },
    {
      "id": 24148,
      "first_name": "Rachael",
      "last_name": "Castaneda",
      "email": "jonathanwilliams@example.org",
      "gender": "Bigender",
      "favorite_genres": "Rock",
      "created_at": "2024-08-08T17:13:44.510541",
      "updated_at": "2024-11-12T01:17:30.287874"
    },
    {
      "id": 39562,
      "first_name": "Richard",
      "last_name": "Evans",
      "email": "smiller@example.net",
      "gender": "Genderfluid",
      "favorite_genres": "Classical",
      "created_at": "2024-10-11T03:32:40.972037",
      "updated_at": "2025-05-12T22:03:19.604057"
    },
    {
      "id": 25631,
      "first_name": "Christine",
      "last_name": "Carpenter",
      "email": "wallacejessica@example.org",
      "gender": "Bigender",
      "favorite_genres": "R&B",
      "created_at": "2024-03-18T12:47:37.920836",
      "updated_at": "2025-03-03T14:59:41.208753"
    },
    {
      "id": 64587,
      "first_name": "Matthew",
      "last_name": "Dean",
      "email": "wkelley@example.com",
      "gender": "Gender nonconforming",
      "favorite_genres": "Punk",
      "created_at": "2025-02-11T15:05:39.021650",
      "updated_at": "2024-12-10T19:40:11.312320"
    },
    {
      "id": 99298,
      "first_name": "Eduardo",
      "last_name": "Flores",
      "email": "mbryant@example.net",
      "gender": "Genderqueer",
      "favorite_genres": "Folk",
      "created_at": "2025-07-17T13:51:01.335104",
      "updated_at": "2024-12-07T12:34:58.673627"
    },
    {
      "id": 88965,
      "first_name": "Stephanie",
      "last_name": "Garcia",
      "email": "wrightsarah@example.org",
      "gender": "Bigender",
      "favorite_genres": "Country",
      "created_at": "2024-08-21T19:51:56.900426",
      "updated_at": "2024-10-21T17:40:07.758567"
    },
    {
      "id": 60115,
      "first_name": "Dana",
      "last_name": "Wilkins",
      "email": "heathersmith@example.org",
      "gender": "Genderfluid",
      "favorite_genres": "Reggae",
      "created_at": "2024-01-01T22:37:56.536098",
      "updated_at": "2024-11-17T19:01:26.824440"
    },
    {
      "id": 27501,
      "first_name": "Charles",
      "last_name": "Morris",
      "email": "shari51@example.org",
      "gender": "Genderfluid",
      "favorite_genres": "Jazz",
      "created_at": "2024-09-19T04:58:24.663717",
      "updated_at": "2024-12-04T03:07:03.430504"
    },
    {
      "id": 20850,
      "first_name": "Cynthia",
      "last_name": "Hernandez",
      "email": "tylerhernandez@example.net",
      "gender": "Genderfluid",
      "favorite_genres": "Classical",
      "created_at": "2024-05-23T15:54:10.274418",
      "updated_at": "2024-12-06T08:18:49.352325"
    },
    {
      "id": 60114,
      "first_name": "Ryan",
      "last_name": "Lamb",
      "email": "wmacias@example.org",
      "gender": "Gender nonconforming",
      "favorite_genres": "Country",
      "created_at": "2023-12-24T03:31:09.308753",
      "updated_at": "2025-04-26T10:54:13.181606"
    },
    {
      "id": 12191,
      "first_name": "Gina",
      "last_name": "Chavez",
      "email": "ycarpenter@example.net",
      "gender": "Bigender",
      "favorite_genres": "Classical",
      "created_at": "2023-09-05T01:33:48.836539",
      "updated_at": "2025-07-05T03:19:09.898481"
    },
    {
      "id": 74628,
      "first_name": "Robert",
      "last_name": "Hanson",
      "email": "sawyermadison@example.net",
      "gender": "Agender",
      "favorite_genres": "Classical",
      "created_at": "2023-11-15T16:26:10.782757",
      "updated_at": "2024-10-04T18:54:53.594339"
    },
    {
      "id": 38062,
      "first_name": "Nicholas",
      "last_name": "Mccormick",
      "email": "scottrodriguez@example.com",
      "gender": "Male",
      "favorite_genres": "Pop",
      "created_at": "2025-03-03T07:13:32.003599",
      "updated_at": "2025-05-14T23:14:06.887984"
    },
    {
      "id": 64807,
      "first_name": "Melissa",
      "last_name": "Shaffer",
      "email": "powellvalerie@example.com",
      "gender": "Non-binary",
      "favorite_genres": "Pop",
      "created_at": "2024-01-20T15:00:06.433043",
      "updated_at": "2025-03-05T12:01:01.204920"
    },
    {
      "id": 48369,
      "first_name": "Jonathan",
      "last_name": "Wright",
      "email": "igriffith@example.net",
      "gender": "Non-binary",
      "favorite_genres": "Folk",
      "created_at": "2025-02-15T14:44:47.992045",
      "updated_at": "2024-09-10T07:34:43.263213"
    },
    {
      "id": 54562,
      "first_name": "Alyssa",
      "last_name": "Cantrell",
      "email": "rebekahcarter@example.com",
      "gender": "Genderfluid",
      "favorite_genres": "Electronic",
      "created_at": "2025-05-26T23:47:14.693154",
      "updated_at": "2025-01-05T17:46:26.945874"
    },
    {
      "id": 46047,
      "first_name": "Michael",
      "last_name": "Myers",
      "email": "jerrypace@example.net",
      "gender": "Genderqueer",
      "favorite_genres": "Blues",
      "created_at": "2024-03-08T08:58:26.596098",
      "updated_at": "2024-09-07T09:12:17.395031"
    },
    {
      "id": 31641,
      "first_name": "Rebekah",
      "last_name": "Francis",
      "email": "bbrown@example.org",
      "gender": "Non-binary",
      "favorite_genres": "Blues",
      "created_at": "2024-08-10T04:32:24.267301",
      "updated_at": "2024-08-10T23:11:45.387825"
    },
    {
      "id": 92174,
      "first_name": "Deanna",
      "last_name": "Smith",
      "email": "williampowell@example.com",
      "gender": "Agender",
      "favorite_genres": "Funk",
      "created_at": "2024-12-28T00:15:20.844850",
      "updated_at": "2025-01-23T15:05:07.725683"
    },
    {
      "id": 30353,
      "first_name": "Rebecca",
      "last_name": "Oliver",
      "email": "griffithfelicia@example.org",
      "gender": "Gender nonconforming",
      "favorite_genres": "Rock",
      "created_at": "2025-02-27T16:52:06.088984",
      "updated_at": "2025-07-18T05:39:04.516157"
    },
    {
      "id": 62648,
      "first_name": "Rachel",
      "last_name": "Nguyen",
      "email": "derek78@example.net",
      "gender": "Genderfluid",
      "favorite_genres": "Classical",
      "created_at": "2024-03-15T07:56:25.734571",
      "updated_at": "2025-01-15T12:59:20.701306"
    },
    {
      "id": 54821,
      "first_name": "Erin",
      "last_name": "Warren",
      "email": "morganhernandez@example.net",
      "gender": "Genderfluid",
      "favorite_genres": "R&B",
      "created_at": "2023-09-12T00:33:20.483502",
      "updated_at": "2025-06-16T09:48:11.669899"
    },
    {
      "id": 82332,
      "first_name": "Samuel",
      "last_name": "Lopez",
      "email": "cmorgan@example.com",
      "gender": "Bigender",
      "favorite_genres": "Pop",
      "created_at": "2025-03-05T11:45:09.038911",
      "updated_at": "2025-02-17T00:55:42.292540"
    },
    {
      "id": 14395,
      "first_name": "Amanda",
      "last_name": "Ryan",
      "email": "klinekelly@example.org",
      "gender": "Genderqueer",
      "favorite_genres": "R&B",
      "created_at": "2024-07-12T22:07:03.881199",
      "updated_at": "2024-12-25T10:38:52.192710"
    },
    {
      "id": 92112,
      "first_name": "Mackenzie",
      "last_name": "Harris",
      "email": "lstafford@example.com",
      "gender": "Genderfluid",
      "favorite_genres": "R&B",
      "created_at": "2024-01-08T21:27:40.763988",
      "updated_at": "2024-09-11T05:52:15.302868"
    },
    {
      "id": 16290,
      "first_name": "Catherine",
      "last_name": "Gilbert",
      "email": "brian11@example.org",
      "gender": "Gender questioning",
      "favorite_genres": "Pop",
      "created_at": "2025-07-19T13:58:16.349071",
      "updated_at": "2024-12-13T16:25:31.467943"
    },
    {
      "id": 20844,
      "first_name": "Brenda",
      "last_name": "Cruz",
      "email": "hsmith@example.com",
      "gender": "Non-binary",
      "favorite_genres": "R&B",
      "created_at": "2025-06-08T22:56:30.081422",
      "updated_at": "2024-12-20T22:11:08.423246"
    },
    {
      "id": 30716,
      "first_name": "Melanie",
      "last_name": "Shelton",
      "email": "anthonyrodriguez@example.net",
      "gender": "Bigender",
      "favorite_genres": "Techno",
      "created_at": "2025-05-30T11:04:29.090327",
      "updated_at": "2025-07-29T19:45:31.026040"
    },
    {
      "id": 20466,
      "first_name": "John",
      "last_name": "Evans",
      "email": "hhayden@example.net",
      "gender": "Gender nonconforming",
      "favorite_genres": "Funk",
      "created_at": "2024-07-13T14:25:18.170303",
      "updated_at": "2024-11-29T11:58:17.408999"
    },
    {
      "id": 12157,
      "first_name": "Amber",
      "last_name": "Patterson",
      "email": "christine12@example.com",
      "gender": "Non-binary",
      "favorite_genres": "Pop",
      "created_at": "2023-09-11T08:24:42.225066",
      "updated_at": "2024-08-21T15:04:15.355542"
    },
    {
      "id": 94630,
      "first_name": "Tyrone",
      "last_name": "Chung",
      "email": "sarah55@example.net",
      "gender": "Bigender",
      "favorite_genres": "Folk",
      "created_at": "2023-08-13T09:23:34.875917",
      "updated_at": "2025-05-17T20:29:20.945470"
    }
  ],
  "total": 1000,
  "page": 1,
  "size": 50,
  "pages": 20
}